%YAML 1.1
%TAG !u! tag:unity3d.com,2011:
--- !u!1045 &1
EditorBuildSettings:
  m_ObjectHideFlags: 0
  serializedVersion: 2
  m_Scenes:
  - enabled: 1
    path: Assets/My Scenes/Instructie.unity
    guid: c67a8819c3a84fb48b839d41ad7c7806
  - enabled: 1
    path: Assets/My Scenes/360 Video Player.unity
    guid: 4f08efc950f8c0c47b38aed3bce3de52
  m_configObjects: {}
